INDEX VERSION 1.126+D:\ALL DEVELOPMENT FOLDERS GO IN HERE\Ludum Dare\ld29\.metadata\.plugins\org.eclipse.jdt.core
2792881776.index
3974580528.index
3133528496.index
3065916431.index
1115467115.index
4155206848.index
4041092966.index
1299022128.index
163172794.index
3241739952.index
4108727661.index
1995173708.index
2570549843.index
3892599397.index
305854171.index
30765161.index
1006452765.index
1697886153.index
1498219845.index
